{
  "images" : [
    {
      "size" : "60x45",
      "idiom" : "iphone",
      "filename" : "60x45@2.png",
      "scale" : "2x"
    },
    {
      "size" : "60x45",
      "idiom" : "iphone",
      "filename" : "60x45@3.png",
      "scale" : "3x"
    },
    {
      "size" : "67x50",
      "idiom" : "ipad",
      "filename" : "67х50@2.png",
      "scale" : "2x"
    },
    {
      "size" : "74x55",
      "idiom" : "ipad",
      "filename" : "74x55@2.png",
      "scale" : "2x"
    },
    {
      "size" : "27x20",
      "idiom" : "universal",
      "filename" : "27x20@2.png",
      "scale" : "2x",
      "platform" : "ios"
    },
    {
      "size" : "27x20",
      "idiom" : "universal",
      "filename" : "27x20@3.png",
      "scale" : "3x",
      "platform" : "ios"
    },
    {
      "size" : "32x24",
      "idiom" : "universal",
      "filename" : "32x24@2.png",
      "scale" : "2x",
      "platform" : "ios"
    },
    {
      "size" : "32x24",
      "idiom" : "universal",
      "filename" : "32x24@3.png",
      "scale" : "3x",
      "platform" : "ios"
    },
    {
      "size" : "1024x768",
      "idiom" : "ios-marketing",
      "filename" : "1024a_768.png",
      "scale" : "1x",
      "platform" : "ios"
    }
  ],
  "info" : {
    "version" : 1,
    "author" : "xcode"
  }
}